; Engine configuration file.
; It's best edited using the editor UI and not directly,
; since the parameters that go here are not all obvious.
;
; Format:
;   [section] ; section goes between []
;   param=value ; assign values to parameters

config_version=5

[application]

config/name="edhstat"
run/main_scene="res://player/ViewPlayer.tscn"
config/features=PackedStringArray("4.2", "Mobile")
config/icon="res://icon.svg"

[rendering]

renderer/rendering_method="mobile"
textures/vram_compression/import_etc2_astc=true
environment/defaults/default_clear_color=Color(0, 0, 0, 1)
