[gd_scene load_steps=3 format=3 uid="uid://dc0axmafoj4wl"]

[ext_resource type="Script" path="res://player/ViewPlayer.gd" id="1_v1y0d"]
[ext_resource type="PackedScene" uid="uid://crp2o0wdh1nb3" path="res://player/NodePlayer.tscn" id="2_7mhts"]

[node name="ViewPlayer" type="GridContainer"]
anchors_preset = 15
anchor_right = 1.0
anchor_bottom = 1.0
grow_horizontal = 2
grow_vertical = 2
size_flags_horizontal = 3
size_flags_vertical = 3
columns = 2
script = ExtResource("1_v1y0d")
delegate = ExtResource("2_7mhts")
colors = Array[Color]([Color(0.666667, 0.176471, 0.258824, 1), Color(0.211765, 0.352941, 0.117647, 1), Color(0.12549, 0.380392, 0.372549, 1), Color(0.662745, 0.603922, 0.211765, 1)])
